"BehaviorSpace results (NetLogo 6.0.2)"
"Uncharted.nlogo"
"view distance"
"02/22/2018 15:20:18:138 +0100"
"min-pxcor","max-pxcor","min-pycor","max-pycor"
"0","30","-30","0"
"[run number]","view-distance","stochastic?","dynamic?","accessible?","[step]","count turtles"
"1","5","false","false","true","2343","1"
"2","5","false","false","true","1500","1"
"3","5","false","false","true","426","1"
"4","5","false","false","true","4494","1"
"5","5","false","false","true","585","1"
"6","5","false","false","true","257","1"
"7","5","false","false","true","793","1"
"8","5","false","false","true","801","1"
"9","5","false","false","true","385","1"
"10","5","false","false","true","297","1"
"11","10","false","false","true","482","1"
"12","10","false","false","true","1086","1"
"13","10","false","false","true","1768","1"
"14","10","false","false","true","2608","1"
"15","10","false","false","true","431","1"
"16","10","false","false","true","183","1"
"17","10","false","false","true","434","1"
"18","10","false","false","true","1809","1"
"19","10","false","false","true","135","1"
"20","10","false","false","true","816","1"
"21","15","false","false","true","411","1"
"22","15","false","false","true","336","1"
"23","15","false","false","true","514","1"
"24","15","false","false","true","176","1"
"25","15","false","false","true","758","1"
"26","15","false","false","true","1050","1"
"27","15","false","false","true","644","1"
"28","15","false","false","true","1285","1"
"29","15","false","false","true","365","1"
"30","15","false","false","true","145","1"
"31","20","false","false","true","177","1"
"32","20","false","false","true","230","1"
"33","20","false","false","true","1196","1"
"34","20","false","false","true","3375","1"
"35","20","false","false","true","639","1"
"36","20","false","false","true","3919","1"
"37","20","false","false","true","369","1"
"38","20","false","false","true","105","1"
"39","20","false","false","true","378","1"
"40","20","false","false","true","180","1"
"41","25","false","false","true","258","1"
"42","25","false","false","true","219","1"
"43","25","false","false","true","289","1"
"44","25","false","false","true","238","1"
"45","25","false","false","true","162","1"
"46","25","false","false","true","88","1"
"47","25","false","false","true","1214","1"
"48","25","false","false","true","205","1"
"49","25","false","false","true","1436","1"
"50","25","false","false","true","422","1"
"51","30","false","false","true","193","1"
"52","30","false","false","true","152","1"
"53","30","false","false","true","256","1"
"54","30","false","false","true","228","1"
"55","30","false","false","true","784","1"
"56","30","false","false","true","135","1"
"57","30","false","false","true","150","1"
"58","30","false","false","true","188","1"
"59","30","false","false","true","224","1"
"60","30","false","false","true","397","1"
